Analysis and Figures | Nature Scientific Data Manuscript
…
Gene tally information

#
## Total number of genes measured
#
length(unique(exprs_counts_tpm$gene_name))
#> [1] 35134

#
## How many genes have zero expression
#
exprs_counts_tpm |> group_by(gene_name) |> filter(counts == 0)
#> # A tibble: 381,160 × 25
#> # Groups:   gene_name [18,499]
#>    intervention sample_id gene_name ensembl_gen_id biotype counts   tpm ..id...x
#>    <fct>        <fct>     <chr>     <chr>          <list>   <int> <dbl>    <int>
#>  1 NS           NS_1      LOC10264… <NA>           <NULL>       0     0        2
#>  2 NS           NS_1      LOC10264… <NA>           <NULL>       0     0        3
#>  3 NS           NS_1      Rp1       ENSMUSG000000… <chr>        0     0        4
#>  4 NS           NS_1      Sox17     ENSMUSG000000… <chr>        0     0        5
#>  5 NS           NS_1      LOC10264… <NA>           <NULL>       0     0        8
#>  6 NS           NS_1      LOC10263… <NA>           <NULL>       0     0        9
#>  7 NS           NS_1      LOC10263… <NA>           <NULL>       0     0       16
#>  8 NS           NS_1      Oprk1     ENSMUSG000000… <chr>        0     0       19
#>  9 NS           NS_1      Fam150a   <NA>           <NULL>       0     0       23
#> 10 NS           NS_1      LOC10263… <NA>           <NULL>       0     0       30
#> # ℹ 381,150 more rows
#> # ℹ 17 more variables: ..id...y <int>, ..id.. <int>, marker_status <fct>,
#> #   marker_id <chr>, marker_type <fct>, marker_name <chr>, feature_type <fct>,
#> #   chromosome <fct>, start <int>, end <int>, strand <fct>,
#> #   genetic_map_pos <dbl>, synonyms <list>, ensembl_trp_id <list>,
#> #   ensembl_prt_id <list>, feature_type2 <chr>, prot_coding <chr>

#
## How many genes have non-zero expression
#
exprs_counts_tpm |> group_by(gene_name) |> filter(counts > 0)
#> # A tibble: 744,184 × 25
#> # Groups:   gene_name [35,134]
#>    intervention sample_id gene_name ensembl_gen_id     biotype   counts      tpm
#>    <fct>        <fct>     <chr>     <chr>              <list>     <int>    <dbl>
#>  1 NS           NS_1      Xkr4      ENSMUSG00000051951 <chr [2]>      1  0.00177
#>  2 NS           NS_1      Gm7357    ENSMUSG00000102269 <chr [2]>      2  0.00816
#>  3 NS           NS_1      Gm7369    ENSMUSG00000102735 <chr [2]>      1  0.0114 
#>  4 NS           NS_1      Mrpl15    ENSMUSG00000033845 <chr [2]>   2199  4.58   
#>  5 NS           NS_1      Gm6123    ENSMUSG00000103922 <chr [2]>     68  0.705  
#>  6 NS           NS_1      Lypla1    ENSMUSG00000025903 <chr [2]>   3059 14.7    
#>  7 NS           NS_1      Tcea1     ENSMUSG00000033813 <chr [2]>   5547 26.0    
#>  8 NS           NS_1      Gm6104    ENSMUSG00000062588 <chr [2]>    359  3.28   
#>  9 NS           NS_1      Rgs20     ENSMUSG00000002459 <chr [2]>    192  0.630  
#> 10 NS           NS_1      Atp6v1h   ENSMUSG00000033793 <chr [2]>   3444 16.2    
#> # ℹ 744,174 more rows
#> # ℹ 18 more variables: ..id...x <int>, ..id...y <int>, ..id.. <int>,
#> #   marker_status <fct>, marker_id <chr>, marker_type <fct>, marker_name <chr>,
#> #   feature_type <fct>, chromosome <fct>, start <int>, end <int>, strand <fct>,
#> #   genetic_map_pos <dbl>, synonyms <list>, ensembl_trp_id <list>,
#> #   ensembl_prt_id <list>, feature_type2 <chr>, prot_coding <chr>
…
